\headcommand {\slideentry {0}{0}{1}{1/1}{}{0}}
\headcommand {\beamer@framepages {1}{1}}
\headcommand {\slideentry {0}{0}{2}{2/4}{}{0}}
\headcommand {\beamer@framepages {2}{4}}
\headcommand {\beamer@sectionpages {1}{4}}
\headcommand {\beamer@subsectionpages {1}{4}}
\headcommand {\sectionentry {1}{Caracteres Métricos}{5}{Caracteres Métricos}{0}}
\headcommand {\slideentry {1}{0}{1}{5/9}{}{0}}
\headcommand {\beamer@framepages {5}{9}}
\headcommand {\slideentry {1}{0}{2}{10/11}{}{0}}
\headcommand {\beamer@framepages {10}{11}}
\headcommand {\slideentry {1}{0}{3}{12/15}{}{0}}
\headcommand {\beamer@framepages {12}{15}}
\headcommand {\slideentry {1}{0}{4}{16/16}{}{0}}
\headcommand {\beamer@framepages {16}{16}}
\headcommand {\slideentry {1}{0}{5}{17/17}{}{0}}
\headcommand {\beamer@framepages {17}{17}}
\headcommand {\slideentry {1}{0}{6}{18/21}{}{0}}
\headcommand {\beamer@framepages {18}{21}}
\headcommand {\beamer@sectionpages {5}{21}}
\headcommand {\beamer@subsectionpages {5}{21}}
\headcommand {\sectionentry {2}{Propiedades de los caracteres métricos}{22}{Propiedades de los caracteres métricos}{0}}
\headcommand {\slideentry {2}{0}{1}{22/25}{}{0}}
\headcommand {\beamer@framepages {22}{25}}
\headcommand {\slideentry {2}{0}{2}{26/31}{}{0}}
\headcommand {\beamer@framepages {26}{31}}
\headcommand {\beamer@sectionpages {22}{31}}
\headcommand {\beamer@subsectionpages {22}{31}}
\headcommand {\sectionentry {3}{Efectos genéticos y ambientales}{32}{Efectos genéticos y ambientales}{0}}
\headcommand {\slideentry {3}{0}{1}{32/32}{}{0}}
\headcommand {\beamer@framepages {32}{32}}
\headcommand {\beamer@partpages {1}{32}}
\headcommand {\beamer@subsectionpages {32}{32}}
\headcommand {\beamer@sectionpages {32}{32}}
\headcommand {\beamer@documentpages {32}}
\headcommand {\gdef \inserttotalframenumber {11}}
